[129684, N]: SYSTEM_SERVER: warning: memory usage: 59 Meg
[129684, 0]: -- begin new backtrace (innermost first) [PARTIAL] ----------
[129684, 0]: NULL (0): ip = 0x2ab8c91d5ca1 (0x10ca1), load module = /opt/apps/intel17/impi17_0/hpctoolkit/2016.12/lib/hpctoolkit/libhpcrun.so.0.0.0 | lip 
[129684, 0]: NULL (0): ip = 0x2ab8c942ab22 (0xfb22), load module = /opt/apps/intel17/impi17_0/hpctoolkit/2016.12/lib/hpctoolkit/ext-libs/libmonitor.so.0.0.0 | lip 
[129684, 0]: NULL (0): ip = 0x2aba7543ae91 (0x23e91), load module = /usr/lib64/libpsm2.so.2.1 | lip 
[129684, 0]: NULL (0): ip = 0x2aba7543a02a (0x2302a), load module = /usr/lib64/libpsm2.so.2.1 | lip 
[129684, 0]: NULL (0): ip = 0x2aba754296e4 (0x126e4), load module = /usr/lib64/libpsm2.so.2.1 | lip 
[129684, 0]: NULL (0): ip = 0x2aba75428132 (0x11132), load module = /usr/lib64/libpsm2.so.2.1 | lip 
[129684, 0]: NULL (0): ip = 0x2aba752160cd (0x20cd), load module = /opt/intel/compilers_and_libraries_2017.4.196/linux/mpi/intel64/lib/libtmip_psm2.so.1.0 | lip 
[129684, 0]: NULL (0): ip = 0x2ab8ca138b46 (0x54cb46), load module = /opt/intel/compilers_and_libraries_2017.4.196/linux/mpi/intel64/lib/release_mt/libmpi.so.12.0 | lip 
[129684, 0]: NULL (0): ip = 0x2ab8ca137998 (0x54b998), load module = /opt/intel/compilers_and_libraries_2017.4.196/linux/mpi/intel64/lib/release_mt/libmpi.so.12.0 | lip 
[129684, 0]: NULL (0): ip = 0x2ab8c9fac016 (0x3c0016), load module = /opt/intel/compilers_and_libraries_2017.4.196/linux/mpi/intel64/lib/release_mt/libmpi.so.12.0 | lip 
[129684, 0]: NULL (0): ip = 0x2ab8c9faa818 (0x3be818), load module = /opt/intel/compilers_and_libraries_2017.4.196/linux/mpi/intel64/lib/release_mt/libmpi.so.12.0 | lip 
[129684, 0]: NULL (0): ip = 0x2ab8c9d27961 (0x13b961), load module = /opt/intel/compilers_and_libraries_2017.4.196/linux/mpi/intel64/lib/release_mt/libmpi.so.12.0 | lip 
[129684, 0]: NULL (0): ip = 0x2ab8c9f98ece (0x3acece), load module = /opt/intel/compilers_and_libraries_2017.4.196/linux/mpi/intel64/lib/release_mt/libmpi.so.12.0 | lip 
[129684, 0]: NULL (0): ip = 0x2ab8c9f2f11b (0x34311b), load module = /opt/intel/compilers_and_libraries_2017.4.196/linux/mpi/intel64/lib/release_mt/libmpi.so.12.0 | lip 
[129684, 0]: NULL (0): ip = 0x2ab8c9f1c81b (0x33081b), load module = /opt/intel/compilers_and_libraries_2017.4.196/linux/mpi/intel64/lib/release_mt/libmpi.so.12.0 | lip 
[129684, 0]: NULL (0): ip = 0x2ab8c94228f7 (0x78f7), load module = /opt/apps/intel17/impi17_0/hpctoolkit/2016.12/lib/hpctoolkit/ext-libs/libmonitor.so.0.0.0 | lip 
[129684, 0]: NULL (0): ip = 0x4020e7 (0x4020e7), load module = /home1/05236/tg845360/cse6230fa17-ex05-hsuh7/ex05 | lip 
[129684, 0]: NULL (0): ip = 0x2ab8cb4cc52e (0x7852e), load module = /usr/lib64/libc-2.17.so | lip 
[129684, 0]: -- end backtrace ------------------------------------

[129684, 0]: -- begin new backtrace (innermost first) [PARTIAL] ----------
[129684, 0]: NULL (0): ip = 0x2ab8c8fab6c9 (0x96c9), load module = /usr/lib64/ld-2.17.so | lip 
[129684, 0]: NULL (0): ip = 0x2ab8c8fac01f (0xa01f), load module = /usr/lib64/ld-2.17.so | lip 
[129684, 0]: NULL (0): ip = 0x2ab8c8fb0926 (0xe926), load module = /usr/lib64/ld-2.17.so | lip 
[129684, 0]: NULL (0): ip = 0x2ab8c8fb7430 (0x15430), load module = /usr/lib64/ld-2.17.so | lip 
[129684, 0]: -- end backtrace ------------------------------------

[129684, 0]: unw_init: cursor could NOT build an interval for initial pc = 0x7ffeb07e1cdf
[129684, 0]: -- begin new backtrace (innermost first) [PARTIAL] ----------
[129684, 0]: NULL (0): ip = 0x7ffeb07e1cdf (0x7ffeb07e1cdf), load module = (null) | lip 
[129684, 0]: -- end backtrace ------------------------------------

MEMORY: segment size: 4.0 meg, num segments: 4, total allocation: 16.0 meg, reclaims: 0
MEMORY: total freeable: 0.0 meg, total non-freeable: 9.5 meg, malloc failures: 0
SAMPLE ANOMALIES: blocks: 0 (async: 0, dlopen: 0), errors: 2 (segv: 0, soft: 2)
SUMMARY: samples: 7138 (recorded: 7138, blocked: 0, errant: 2, trolled: 14, yielded: 0),
         frames: 55345 (trolled: 14)
         intervals: 11047 (suspicious: 2)
