[129853, N]: SYSTEM_SERVER: warning: memory usage: 59 Meg
[129853, 0]: -- begin new backtrace (innermost first) [PARTIAL] ----------
[129853, 0]: NULL (0): ip = 0x2abc11ff9ca1 (0x10ca1), load module = /opt/apps/intel17/impi17_0/hpctoolkit/2016.12/lib/hpctoolkit/libhpcrun.so.0.0.0 | lip 
[129853, 0]: NULL (0): ip = 0x2abc1224eb22 (0xfb22), load module = /opt/apps/intel17/impi17_0/hpctoolkit/2016.12/lib/hpctoolkit/ext-libs/libmonitor.so.0.0.0 | lip 
[129853, 0]: NULL (0): ip = 0x2abdbe25ee91 (0x23e91), load module = /usr/lib64/libpsm2.so.2.1 | lip 
[129853, 0]: NULL (0): ip = 0x2abdbe25e02a (0x2302a), load module = /usr/lib64/libpsm2.so.2.1 | lip 
[129853, 0]: NULL (0): ip = 0x2abdbe24d6e4 (0x126e4), load module = /usr/lib64/libpsm2.so.2.1 | lip 
[129853, 0]: NULL (0): ip = 0x2abdbe24c132 (0x11132), load module = /usr/lib64/libpsm2.so.2.1 | lip 
[129853, 0]: NULL (0): ip = 0x2abdbe03a0cd (0x20cd), load module = /opt/intel/compilers_and_libraries_2017.4.196/linux/mpi/intel64/lib/libtmip_psm2.so.1.0 | lip 
[129853, 0]: NULL (0): ip = 0x2abc12f5cb46 (0x54cb46), load module = /opt/intel/compilers_and_libraries_2017.4.196/linux/mpi/intel64/lib/release_mt/libmpi.so.12.0 | lip 
[129853, 0]: NULL (0): ip = 0x2abc12f5b998 (0x54b998), load module = /opt/intel/compilers_and_libraries_2017.4.196/linux/mpi/intel64/lib/release_mt/libmpi.so.12.0 | lip 
[129853, 0]: NULL (0): ip = 0x2abc12dd0016 (0x3c0016), load module = /opt/intel/compilers_and_libraries_2017.4.196/linux/mpi/intel64/lib/release_mt/libmpi.so.12.0 | lip 
[129853, 0]: NULL (0): ip = 0x2abc12dce818 (0x3be818), load module = /opt/intel/compilers_and_libraries_2017.4.196/linux/mpi/intel64/lib/release_mt/libmpi.so.12.0 | lip 
[129853, 0]: NULL (0): ip = 0x2abc12b4b961 (0x13b961), load module = /opt/intel/compilers_and_libraries_2017.4.196/linux/mpi/intel64/lib/release_mt/libmpi.so.12.0 | lip 
[129853, 0]: NULL (0): ip = 0x2abc12dbcece (0x3acece), load module = /opt/intel/compilers_and_libraries_2017.4.196/linux/mpi/intel64/lib/release_mt/libmpi.so.12.0 | lip 
[129853, 0]: NULL (0): ip = 0x2abc12d5311b (0x34311b), load module = /opt/intel/compilers_and_libraries_2017.4.196/linux/mpi/intel64/lib/release_mt/libmpi.so.12.0 | lip 
[129853, 0]: NULL (0): ip = 0x2abc12d4081b (0x33081b), load module = /opt/intel/compilers_and_libraries_2017.4.196/linux/mpi/intel64/lib/release_mt/libmpi.so.12.0 | lip 
[129853, 0]: NULL (0): ip = 0x2abc122468f7 (0x78f7), load module = /opt/apps/intel17/impi17_0/hpctoolkit/2016.12/lib/hpctoolkit/ext-libs/libmonitor.so.0.0.0 | lip 
[129853, 0]: NULL (0): ip = 0x4020e7 (0x4020e7), load module = /home1/05236/tg845360/cse6230fa17-ex05-hsuh7/ex05 | lip 
[129853, 0]: NULL (0): ip = 0x2abc14e876b6 (0x36b6), load module = /usr/lib64/libnss_files-2.17.so | lip 
[129853, 0]: NULL (0): ip = 0x2abc14e880c0 (0x40c0), load module = /usr/lib64/libnss_files-2.17.so | lip 
[129853, 0]: -- end backtrace ------------------------------------

MEMORY: segment size: 4.0 meg, num segments: 4, total allocation: 16.0 meg, reclaims: 0
MEMORY: total freeable: 0.0 meg, total non-freeable: 9.4 meg, malloc failures: 0
SAMPLE ANOMALIES: blocks: 0 (async: 0, dlopen: 0), errors: 0 (segv: 0, soft: 0)
SUMMARY: samples: 7712 (recorded: 7712, blocked: 0, errant: 0, trolled: 4, yielded: 0),
         frames: 58379 (trolled: 4)
         intervals: 10566 (suspicious: 2)
