[129642, N]: SYSTEM_SERVER: warning: memory usage: 60 Meg
[129642, 0]: -- begin new backtrace (innermost first) [PARTIAL] ----------
[129642, 0]: NULL (0): ip = 0x2ab8d3918ca1 (0x10ca1), load module = /opt/apps/intel17/impi17_0/hpctoolkit/2016.12/lib/hpctoolkit/libhpcrun.so.0.0.0 | lip 
[129642, 0]: NULL (0): ip = 0x2ab8d3b6db22 (0xfb22), load module = /opt/apps/intel17/impi17_0/hpctoolkit/2016.12/lib/hpctoolkit/ext-libs/libmonitor.so.0.0.0 | lip 
[129642, 0]: NULL (0): ip = 0x2aba7fb7de91 (0x23e91), load module = /usr/lib64/libpsm2.so.2.1 | lip 
[129642, 0]: NULL (0): ip = 0x2aba7fb7d02a (0x2302a), load module = /usr/lib64/libpsm2.so.2.1 | lip 
[129642, 0]: NULL (0): ip = 0x2aba7fb6c6e4 (0x126e4), load module = /usr/lib64/libpsm2.so.2.1 | lip 
[129642, 0]: NULL (0): ip = 0x2aba7fb6b132 (0x11132), load module = /usr/lib64/libpsm2.so.2.1 | lip 
[129642, 0]: NULL (0): ip = 0x2aba7f9590cd (0x20cd), load module = /opt/intel/compilers_and_libraries_2017.4.196/linux/mpi/intel64/lib/libtmip_psm2.so.1.0 | lip 
[129642, 0]: NULL (0): ip = 0x2ab8d487bb46 (0x54cb46), load module = /opt/intel/compilers_and_libraries_2017.4.196/linux/mpi/intel64/lib/release_mt/libmpi.so.12.0 | lip 
[129642, 0]: NULL (0): ip = 0x2ab8d487a998 (0x54b998), load module = /opt/intel/compilers_and_libraries_2017.4.196/linux/mpi/intel64/lib/release_mt/libmpi.so.12.0 | lip 
[129642, 0]: NULL (0): ip = 0x2ab8d46ef016 (0x3c0016), load module = /opt/intel/compilers_and_libraries_2017.4.196/linux/mpi/intel64/lib/release_mt/libmpi.so.12.0 | lip 
[129642, 0]: NULL (0): ip = 0x2ab8d46ed818 (0x3be818), load module = /opt/intel/compilers_and_libraries_2017.4.196/linux/mpi/intel64/lib/release_mt/libmpi.so.12.0 | lip 
[129642, 0]: NULL (0): ip = 0x2ab8d446a961 (0x13b961), load module = /opt/intel/compilers_and_libraries_2017.4.196/linux/mpi/intel64/lib/release_mt/libmpi.so.12.0 | lip 
[129642, 0]: NULL (0): ip = 0x2ab8d46dbece (0x3acece), load module = /opt/intel/compilers_and_libraries_2017.4.196/linux/mpi/intel64/lib/release_mt/libmpi.so.12.0 | lip 
[129642, 0]: NULL (0): ip = 0x2ab8d467211b (0x34311b), load module = /opt/intel/compilers_and_libraries_2017.4.196/linux/mpi/intel64/lib/release_mt/libmpi.so.12.0 | lip 
[129642, 0]: NULL (0): ip = 0x2ab8d465f81b (0x33081b), load module = /opt/intel/compilers_and_libraries_2017.4.196/linux/mpi/intel64/lib/release_mt/libmpi.so.12.0 | lip 
[129642, 0]: NULL (0): ip = 0x2ab8d3b658f7 (0x78f7), load module = /opt/apps/intel17/impi17_0/hpctoolkit/2016.12/lib/hpctoolkit/ext-libs/libmonitor.so.0.0.0 | lip 
[129642, 0]: NULL (0): ip = 0x4020e7 (0x4020e7), load module = /home1/05236/tg845360/cse6230fa17-ex05-hsuh7/ex05 | lip 
[129642, 0]: NULL (0): ip = 0x2ab8d5c0f52e (0x7852e), load module = /usr/lib64/libc-2.17.so | lip 
[129642, 0]: -- end backtrace ------------------------------------

MEMORY: segment size: 4.0 meg, num segments: 4, total allocation: 16.0 meg, reclaims: 0
MEMORY: total freeable: 0.0 meg, total non-freeable: 9.4 meg, malloc failures: 0
SAMPLE ANOMALIES: blocks: 0 (async: 0, dlopen: 0), errors: 0 (segv: 0, soft: 0)
SUMMARY: samples: 7712 (recorded: 7712, blocked: 0, errant: 0, trolled: 2, yielded: 0),
         frames: 58036 (trolled: 2)
         intervals: 10121 (suspicious: 2)
