/home1/05236/tg845360/cse6230fa17-ex05-hsuh7
c455-063.stampede2.tacc.utexas.edu
Fri Oct 13 10:37:24 CDT 2017
mpicc  -g -Wall -O3 -c -o ex05.o ex05.c
mpicc -o ex05 ex05.o 
ibrun tacc_affinity /home1/05236/tg845360/cse6230fa17-ex05-hsuh7/ex05
TACC:  Starting up job 331416 
TACC:  Starting parallel tasks... 
MPI Version: 3.1
Intel(R) MPI Library 2017 Update 3 for Linux* OS

MPI # Procs: 64
MPI Wtime 1.50791e+09, precision 1e-06
MPI Wtime is global
MPI proc 0 host: c455-063.stampede2.tacc.utexas.edu
MPI proc 1 host: c455-063.stampede2.tacc.utexas.edu
MPI proc 2 host: c455-063.stampede2.tacc.utexas.edu
MPI proc 3 host: c455-063.stampede2.tacc.utexas.edu
MPI proc 4 host: c455-063.stampede2.tacc.utexas.edu
MPI proc 5 host: c455-063.stampede2.tacc.utexas.edu
MPI proc 6 host: c455-063.stampede2.tacc.utexas.edu
MPI proc 7 host: c455-063.stampede2.tacc.utexas.edu
MPI proc 8 host: c455-063.stampede2.tacc.utexas.edu
MPI proc 9 host: c455-063.stampede2.tacc.utexas.edu
MPI proc 10 host: c455-063.stampede2.tacc.utexas.edu
MPI proc 11 host: c455-063.stampede2.tacc.utexas.edu
MPI proc 12 host: c455-063.stampede2.tacc.utexas.edu
MPI proc 13 host: c455-063.stampede2.tacc.utexas.edu
MPI proc 14 host: c455-063.stampede2.tacc.utexas.edu
MPI proc 15 host: c455-063.stampede2.tacc.utexas.edu
MPI proc 16 host: c455-063.stampede2.tacc.utexas.edu
MPI proc 17 host: c455-063.stampede2.tacc.utexas.edu
MPI proc 18 host: c455-063.stampede2.tacc.utexas.edu
MPI proc 19 host: c455-063.stampede2.tacc.utexas.edu
MPI proc 20 host: c455-063.stampede2.tacc.utexas.edu
MPI proc 21 host: c455-063.stampede2.tacc.utexas.edu
MPI proc 22 host: c455-063.stampede2.tacc.utexas.edu
MPI proc 23 host: c455-063.stampede2.tacc.utexas.edu
MPI proc 24 host: c455-063.stampede2.tacc.utexas.edu
MPI proc 25 host: c455-063.stampede2.tacc.utexas.edu
MPI proc 26 host: c455-063.stampede2.tacc.utexas.edu
MPI proc 27 host: c455-063.stampede2.tacc.utexas.edu
MPI proc 28 host: c455-063.stampede2.tacc.utexas.edu
MPI proc 29 host: c455-063.stampede2.tacc.utexas.edu
MPI proc 30 host: c455-063.stampede2.tacc.utexas.edu
MPI proc 31 host: c455-063.stampede2.tacc.utexas.edu
MPI proc 32 host: c455-063.stampede2.tacc.utexas.edu
MPI proc 33 host: c455-063.stampede2.tacc.utexas.edu
MPI proc 34 host: c455-063.stampede2.tacc.utexas.edu
MPI proc 35 host: c455-063.stampede2.tacc.utexas.edu
MPI proc 36 host: c455-063.stampede2.tacc.utexas.edu
MPI proc 37 host: c455-063.stampede2.tacc.utexas.edu
MPI proc 38 host: c455-063.stampede2.tacc.utexas.edu
MPI proc 39 host: c455-063.stampede2.tacc.utexas.edu
MPI proc 40 host: c455-063.stampede2.tacc.utexas.edu
MPI proc 41 host: c455-063.stampede2.tacc.utexas.edu
MPI proc 42 host: c455-063.stampede2.tacc.utexas.edu
MPI proc 43 host: c455-063.stampede2.tacc.utexas.edu
MPI proc 44 host: c455-063.stampede2.tacc.utexas.edu
MPI proc 45 host: c455-063.stampede2.tacc.utexas.edu
MPI proc 46 host: c455-063.stampede2.tacc.utexas.edu
MPI proc 47 host: c455-063.stampede2.tacc.utexas.edu
MPI proc 48 host: c455-063.stampede2.tacc.utexas.edu
MPI proc 49 host: c455-063.stampede2.tacc.utexas.edu
MPI proc 50 host: c455-063.stampede2.tacc.utexas.edu
MPI proc 51 host: c455-063.stampede2.tacc.utexas.edu
MPI proc 52 host: c455-063.stampede2.tacc.utexas.edu
MPI proc 53 host: c455-063.stampede2.tacc.utexas.edu
MPI proc 54 host: c455-063.stampede2.tacc.utexas.edu
MPI proc 55 host: c455-063.stampede2.tacc.utexas.edu
MPI proc 56 host: c455-063.stampede2.tacc.utexas.edu
MPI proc 57 host: c455-063.stampede2.tacc.utexas.edu
MPI proc 58 host: c455-063.stampede2.tacc.utexas.edu
MPI proc 59 host: c455-063.stampede2.tacc.utexas.edu
MPI proc 60 host: c455-063.stampede2.tacc.utexas.edu
MPI proc 61 host: c455-063.stampede2.tacc.utexas.edu
MPI proc 62 host: c455-063.stampede2.tacc.utexas.edu
MPI proc 63 host: c455-063.stampede2.tacc.utexas.edu
MPI Point-to-point test:
 # Processes  | Message Size | Total Size   | Time         | B/s
            4              8             16   +4.82135e-06   +3.31857e+06
            4             64            128   +4.47697e-06   +2.85908e+07
            4            512           1024   +6.35783e-06   +1.61061e+08
            4           4096           8192   +8.13272e-06   +1.00729e+09
            4          32768          65536   +1.11262e-05   +5.89024e+09
            4         262144         524288   +7.57906e-05   +6.91758e+09
            4        2097152        4194304   +7.06938e-04   +5.93306e+09
            4       16777216       33554432   +6.82441e-03   +4.91682e+09
           16              8             64   +3.68224e-06   +1.73807e+07
           16             64            512   +2.88751e-06   +1.77315e+08
           16            512           4096   +4.34452e-06   +9.42798e+08
           16           4096          32768   +6.38432e-06   +5.13258e+09
           16          32768         262144   +1.23183e-05   +2.12809e+10
           16         262144        2097152   +2.01358e-04   +1.04151e+10
           16        2097152       16777216   +1.76899e-03   +9.48408e+09
           16       16777216      134217728   +3.73087e-02   +3.59749e+09
           64              8            256   +5.82801e-06   +4.39258e+07
           64             64           2048   +4.66241e-06   +4.39258e+08
           64            512          16384   +4.98030e-06   +3.28976e+09
           64           4096         131072   +6.11941e-06   +2.14191e+10
           64          32768        1048576   +8.00027e-06   +1.31068e+11
           64         262144        8388608   +8.42465e-04   +9.95721e+09
           64        2097152       67108864   +1.85201e-02   +3.62356e+09
           64       16777216      536870912   +5.23392e-01   +1.02575e+09
MPI One-to-all broadcast test:
 # Processes  | Message Size | Total Size   | Time         | B/s
slurmstepd: error: *** JOB 331416 ON c455-063 CANCELLED AT 2017-10-13T10:39:51 DUE TO TIME LIMIT ***
make: *** [runex05] Terminated
